QA output created by 144
Formatting 'TEST_DIR/t.IMGFMT', fmt=IMGFMT size=536870912

=== Launching QEMU ===


=== Performing Live Snapshot 1 ===

{ 'execute': 'qmp_capabilities' }
{"return": {}}
{ 'execute': 'blockdev-snapshot-sync',
                                'arguments': {
                                             'device': 'virtio0',
                                             'snapshot-file':'TEST_DIR/tmp.IMGFMT',
                                             'format': 'IMGFMT'
                                             }
                    }
Formatting 'TEST_DIR/tmp.qcow2', fmt=qcow2 cluster_size=65536 extended_l2=off compression_type=zlib size=536870912 backing_file=TEST_DIR/t.qcow2 backing_fmt=qcow2 lazy_refcounts=off refcount_bits=16
{"return": {}}

=== Performing block-commit on active layer ===

{ 'execute': 'block-commit',
                                'arguments': {
                                                 'device': 'virtio0'
                                              }
                    }
{"event": "JOB_STATUS_CHANGE", "timestamp": {"seconds":  TIMESTAMP, "microseconds":  TIMESTAMP}, "data": {"id": "virtio0", "status": "created"}}
{"event": "JOB_STATUS_CHANGE", "timestamp": {"seconds":  TIMESTAMP, "microseconds":  TIMESTAMP}, "data": {"id": "virtio0", "status": "running"}}
{"return": {}}
{"event": "JOB_STATUS_CHANGE", "timestamp": {"seconds":  TIMESTAMP, "microseconds":  TIMESTAMP}, "data": {"id": "virtio0", "status": "ready"}}
{"event": "BLOCK_JOB_READY", "timestamp": {"seconds":  TIMESTAMP, "microseconds":  TIMESTAMP}, "data": {"type": "commit", "device": "virtio0", "len": 0, "offset": 0, "speed": 0}}
{ 'execute': 'block-job-complete',
                                'arguments': {
                                                'device': 'virtio0'
                                              }
                   }
{"return": {}}
{"event": "JOB_STATUS_CHANGE", "timestamp": {"seconds":  TIMESTAMP, "microseconds":  TIMESTAMP}, "data": {"id": "virtio0", "status": "waiting"}}
{"event": "JOB_STATUS_CHANGE", "timestamp": {"seconds":  TIMESTAMP, "microseconds":  TIMESTAMP}, "data": {"id": "virtio0", "status": "pending"}}
{"event": "BLOCK_JOB_COMPLETED", "timestamp": {"seconds":  TIMESTAMP, "microseconds":  TIMESTAMP}, "data": {"type": "commit", "device": "virtio0", "len": 0, "offset": 0, "speed": 0}}
{"event": "JOB_STATUS_CHANGE", "timestamp": {"seconds":  TIMESTAMP, "microseconds":  TIMESTAMP}, "data": {"id": "virtio0", "status": "concluded"}}
{"event": "JOB_STATUS_CHANGE", "timestamp": {"seconds":  TIMESTAMP, "microseconds":  TIMESTAMP}, "data": {"id": "virtio0", "status": "null"}}

=== Performing Live Snapshot 2 ===

{ 'execute': 'blockdev-snapshot-sync',
                                'arguments': {
                                                'device': 'virtio0',
                                                'snapshot-file':'TEST_DIR/tmp2.IMGFMT',
                                                'format': 'IMGFMT'
                                              }
                   }
Formatting 'TEST_DIR/tmp2.qcow2', fmt=qcow2 cluster_size=65536 extended_l2=off compression_type=zlib size=536870912 backing_file=TEST_DIR/t.qcow2 backing_fmt=qcow2 lazy_refcounts=off refcount_bits=16
{"return": {}}
*** done
