QA output created by 156
Formatting 'TEST_DIR/t.IMGFMT.backing', fmt=IMGFMT size=1048576
Formatting 'TEST_DIR/t.IMGFMT', fmt=IMGFMT size=1048576 backing_file=TEST_DIR/t.IMGFMT.backing backing_fmt=IMGFMT
wrote 262144/262144 bytes at offset 0
256 KiB, X ops; XX:XX:XX.X (XXX YYY/sec and XXX ops/sec)
wrote 196608/196608 bytes at offset 65536
192 KiB, X ops; XX:XX:XX.X (XXX YYY/sec and XXX ops/sec)
{ 'execute': 'qmp_capabilities' }
{"return": {}}
Formatting 'TEST_DIR/t.IMGFMT.overlay', fmt=IMGFMT size=1048576 backing_file=TEST_DIR/t.IMGFMT backing_fmt=IMGFMT
{ 'execute': 'blockdev-snapshot-sync',
       'arguments': { 'device': 'source',
                      'snapshot-file': 'TEST_DIR/t.IMGFMT.overlay',
                      'format': 'IMGFMT',
                      'mode': 'existing' } }
{"return": {}}
{ 'execute': 'human-monitor-command',
       'arguments': { 'command-line':
                      'qemu-io source "write -P 3 128k 128k"' } }
wrote 131072/131072 bytes at offset 131072
128 KiB, X ops; XX:XX:XX.X (XXX YYY/sec and XXX ops/sec)
{"return": ""}
Formatting 'TEST_DIR/t.IMGFMT.target.overlay', fmt=IMGFMT size=1048576 backing_file=TEST_DIR/t.IMGFMT.target backing_fmt=IMGFMT
{ 'execute': 'drive-mirror',
       'arguments': { 'device': 'source',
                      'target': 'TEST_DIR/t.IMGFMT.target.overlay',
                      'mode': 'existing',
                      'sync': 'top' } }
{"event": "JOB_STATUS_CHANGE", "timestamp": {"seconds":  TIMESTAMP, "microseconds":  TIMESTAMP}, "data": {"id": "source", "status": "created"}}
{"event": "JOB_STATUS_CHANGE", "timestamp": {"seconds":  TIMESTAMP, "microseconds":  TIMESTAMP}, "data": {"id": "source", "status": "running"}}
{"return": {}}
{"event": "JOB_STATUS_CHANGE", "timestamp": {"seconds":  TIMESTAMP, "microseconds":  TIMESTAMP}, "data": {"id": "source", "status": "ready"}}
{"event": "BLOCK_JOB_READY", "timestamp": {"seconds":  TIMESTAMP, "microseconds":  TIMESTAMP}, "data": {"type": "mirror", "device": "source", "len": 131072, "offset": 131072, "speed": 0}}
{ 'execute': 'human-monitor-command',
       'arguments': { 'command-line':
                      'qemu-io source "write -P 4 192k 64k"' } }
wrote 65536/65536 bytes at offset 196608
64 KiB, X ops; XX:XX:XX.X (XXX YYY/sec and XXX ops/sec)
{"return": ""}
{ 'execute': 'block-job-complete',
       'arguments': { 'device': 'source' } }
{"return": {}}
{"event": "JOB_STATUS_CHANGE", "timestamp": {"seconds":  TIMESTAMP, "microseconds":  TIMESTAMP}, "data": {"id": "source", "status": "waiting"}}
{"event": "JOB_STATUS_CHANGE", "timestamp": {"seconds":  TIMESTAMP, "microseconds":  TIMESTAMP}, "data": {"id": "source", "status": "pending"}}
{"event": "BLOCK_JOB_COMPLETED", "timestamp": {"seconds":  TIMESTAMP, "microseconds":  TIMESTAMP}, "data": {"type": "mirror", "device": "source", "len": 196608, "offset": 196608, "speed": 0}}
{"event": "JOB_STATUS_CHANGE", "timestamp": {"seconds":  TIMESTAMP, "microseconds":  TIMESTAMP}, "data": {"id": "source", "status": "concluded"}}
{"event": "JOB_STATUS_CHANGE", "timestamp": {"seconds":  TIMESTAMP, "microseconds":  TIMESTAMP}, "data": {"id": "source", "status": "null"}}

{ 'execute': 'human-monitor-command',
       'arguments': { 'command-line':
                      'qemu-io source "read -P 1 0k 64k"' } }
read 65536/65536 bytes at offset 0
64 KiB, X ops; XX:XX:XX.X (XXX YYY/sec and XXX ops/sec)
{"return": ""}
{ 'execute': 'human-monitor-command',
       'arguments': { 'command-line':
                      'qemu-io source "read -P 2 64k 64k"' } }
read 65536/65536 bytes at offset 65536
64 KiB, X ops; XX:XX:XX.X (XXX YYY/sec and XXX ops/sec)
{"return": ""}
{ 'execute': 'human-monitor-command',
       'arguments': { 'command-line':
                      'qemu-io source "read -P 3 128k 64k"' } }
read 65536/65536 bytes at offset 131072
64 KiB, X ops; XX:XX:XX.X (XXX YYY/sec and XXX ops/sec)
{"return": ""}
{ 'execute': 'human-monitor-command',
       'arguments': { 'command-line':
                      'qemu-io source "read -P 4 192k 64k"' } }
read 65536/65536 bytes at offset 196608
64 KiB, X ops; XX:XX:XX.X (XXX YYY/sec and XXX ops/sec)
{"return": ""}

{ 'execute': 'quit' }
{"return": {}}
{"event": "SHUTDOWN", "timestamp": {"seconds":  TIMESTAMP, "microseconds":  TIMESTAMP}, "data": {"guest": false, "reason": "host-qmp-quit"}}

read 65536/65536 bytes at offset 0
64 KiB, X ops; XX:XX:XX.X (XXX YYY/sec and XXX ops/sec)
read 65536/65536 bytes at offset 65536
64 KiB, X ops; XX:XX:XX.X (XXX YYY/sec and XXX ops/sec)
read 65536/65536 bytes at offset 131072
64 KiB, X ops; XX:XX:XX.X (XXX YYY/sec and XXX ops/sec)
read 65536/65536 bytes at offset 196608
64 KiB, X ops; XX:XX:XX.X (XXX YYY/sec and XXX ops/sec)

*** done
